//Jean carlos silva de oliveira aut 2D1 
//1) Implemente um programa em C, que leia um dia da semana 
//(1 - dom, 2 - seg, ...,7 – sab) e escreva uma mensagem “FIM DE SEMANA” caso seja sábado oudomingo
#include <stdio.h>
 #include <stdlib.h>
 int main ( )
 {
 int num;
  printf("digite o número da semana de 1 a 7:\n");
  scanf("%i",&num);
  
  
  if (num > 6) 
      {
     printf("fim de semana!\n");		
	 
	  }
	  
	  
	  else {
	  	printf("dia de semana \n");
	  }
	 
 	 
  system ("pause");
 return(0);
 }
 ----------------------------------------------------------------------------------------------------------------------------------------------------------------------------------
//Jean carlos silva de oliveira aut 2D1 
//4)Elaborar um programa em C que leia o salário bruto, INSS e IR (imposto de renda)
//de um funcionário de uma determinada empresa. Calcular o salário líquido desse
//funcionário (salário líquido = salário bruto – INSS - IR). Caso o salário líquido
//seja inferior a R$5.000,00, acrescentar 10% em seu valor, a título de bônus (salário
//= salário líquido + 10% do salário líquido). Imprimir o salário.
#include<stdio.h>
#include<math.h>
#include <stdlib.h>

int main ()
  {
  
 float inss, ir, sb, sl, porc;
  printf("digite o salario bruto: \n");
   scanf ("%f",&sb);
   
         

  printf("digite o salario inss: \n ");
   scanf ("%f",&inss);
      

  printf("digite o valor do ir: \n  ");
   scanf ("%f",&ir);
   
   
   sl = sb - inss - ir;
   porc= 0.10*sl;
     
     	if (sl<5000)
         	{
     		sl=sl+porc;
     		printf("salario com bonus:%f", sl);
		    }
		 
		 else {
		 	printf("salario sem bonus:%f",sl);
        }
		system ("pause");
		 return(0);
	}

--------------------------------------------------------------------------------------------------------------------------------------------------------------------------------

//Jean carlos silva de oliveira aut 2D1 
//condicional composta 5)
#include <stdlib.h>
#include <stdio.h>
int main (void)
{
int num;
printf("digite um numero inteiro:\n ");
scanf("%d",&num);
if(num%2==0)
{
printf("Par");
}
else
printf("impar");
}

----------------------------------------------------------------------------------------------------------------------------------------------------------------------------------
//Jean carlos silva de oliveira aut 2D1 
//6)O proprietário de uma papelaria verifica semanalmente a soma de sua receita e a
//soma dos gastos, ou seja, das despesas. Elaborar um programa em C que leia essas
//duas somas, calcule e imprima o lucro (caso haja) obtido. Caso o lucro seja
//positivo, imprima a mensagem “lucro real”. Caso contrário, imprima a mensagem
//“não houve lucro”. No final, imprima o lucro obtido (sendo positivo ou negativo).
//Obs.: lucro = receitas – despeas.

	
 int main ()

 {
 	float lucro, receitas, despesas;
 	
   printf(" insira o valor do lucro:\n");
   scanf("%f", &lucro);
 	printf(" insira o valor das receitas:\n");
         scanf("%f", &receitas);
      		 printf(" insira o valor das despesas:\n");
               scanf("%f", &despesas);
               
               
    lucro= receitas-despesas;
    
    if (lucro > 1)
    
 printf("lucro real%f: \n", lucro);
      
      
      else{
      	
      		printf("não houve lucro%f:",lucro);
	  }
      

      	return(0);
 
 }


  ----------------------------------------------------------------------------------------------------------------------------------------------------------------------------------
//Jean carlos silva de oliveira aut 2D1 
/*
2) Implemente um programa em C para ler o peso de uma mochila e imprimir a
mensagem: “mochila leve” caso o peso esteja abaixo de 5 kg. Caso o peso esteja
compreendido entre 5kg e 10 kg, escrever “mochila pesada”; e se estiver acima,
imprimir “mochila muito pesada”




*/




#include<stdlib.h>
#include<stdio.h>


int main ()
{

    float peso;
	
	printf("insira o peso da mochila em kg:\n");
	scanf("%f",&peso);
     
	 
	 	if (peso<5)
     		printf ("\n\n mochila leve ");
     		
	else if (peso >=5 && peso <= 10)
        {
        	printf ("\n\n mochila pesada!\n");
        	
        }
     	else
             printf ("\n\n mochila muito pesada!!!");
	return(0);
   {
   	system ("pause");
		 return(0);

   	
	} 



	
} 
------------------------------------------------------------------------------------------------------------------------------
//Jean carlos silva de oliveira aut 2D1 


  /*
5) Elaborar um programa em C que leia o número de horas trabalhadas, o valor da
hora, INSS e IR (imposto de renda) de um funcionário de uma determinada
empresa. Calcular o salário líquido desse funcionário (salário líquido = salário
bruto – INSS - IR). Caso o salário líquido seja inferior a R$5.000,00, acrescentar
10% em seu valor, a título de bônus (salário = salário líquido + 10% do salário
líquido). Caso seja igual a 5.000,00, acrescentar 5% em seu valor. Caso seja
superior a 5.000,00, acrescentar 2% a título de bônus. Imprimir o salário.
Obs.: salário bruto = número de horas trabalhadas * valor da hora

*/




#include<stdlib.h>
#include<stdio.h>


int main ()
{

    float vh,ht,inss,ir, sl, sb, porc;
	
	printf("insira ovalor das horas:\n");
	scanf("%f",&vh);
	
	printf("insira as horas trabalhadas:\n");
	scanf("%f",&ht);
     
     printf("insira ovalor do seu inss:\n");
	scanf("%f",&inss);
	
	printf("insira ovalor do seu ir (imposto de renda):\n");
	scanf("%f",&ir);
     
     sb=ht*vh;
	 sl= sb-inss-ir; 
	 porc=0.10*sl;
	 
     
	 
	 	if (sl < 5000)
	 	
	 	{
	 		sl= sl+porc;
			 printf ("\n\n seu salario e: \n%f\n ",sl);
		 }
     		
     		

   {
   	system ("pause");
		 return(0);

   	
	} 



	
} 

  
  